stake,scenario,proba
0.00, 1, 0
0.00, 2, 0
0.00, 3, 0
0.00, sum, 0
0.01, 1, 1.85711e-18
0.01, 2, 1.01818e-14
0.01, 3, 1.77461e-23
0.01, sum, 1.01837e-14
0.02, 1, 1.24925e-14
0.02, 2, 1.48104e-12
0.02, 3, 1.52382e-19
0.02, sum, 1.49353e-12
0.03, 1, 1.99315e-12
0.03, 2, 3.15189e-11
0.03, 3, 2.8145e-17
0.03, sum, 3.35121e-11
0.04, 1, 6.86631e-11
0.04, 2, 3.02474e-10
0.04, 3, 1.10512e-15
0.04, sum, 3.71138e-10
0.05, 1, 1.02047e-09
0.05, 2, 1.82408e-09
0.05, 3, 1.932e-14
0.05, sum, 2.84457e-09
0.06, 1, 8.90569e-09
0.06, 2, 8.04852e-09
0.06, 3, 2.06727e-13
0.06, sum, 1.69544e-08
0.07, 1, 5.37946e-08
0.07, 2, 2.8385e-08
0.07, 3, 1.58165e-12
0.07, sum, 8.21812e-08
0.08, 1, 2.48109e-07
0.08, 2, 8.47567e-08
0.08, 3, 9.43846e-12
0.08, sum, 3.32875e-07
0.09, 1, 9.30839e-07
0.09, 2, 2.22986e-07
0.09, 3, 4.64981e-11
0.09, sum, 1.15387e-06
0.10, 1, 2.96622e-06
0.10, 2, 5.31893e-07
0.10, 3, 1.97047e-10
0.10, sum, 3.49831e-06
0.11, 1, 8.27975e-06
0.11, 2, 1.17481e-06
0.11, 3, 7.40577e-10
0.11, sum, 9.4553e-06
0.12, 1, 2.07109e-05
0.12, 2, 2.44084e-06
0.12, 3, 2.52403e-09
0.12, sum, 2.31543e-05
0.13, 1, 4.7234e-05
0.13, 2, 4.82689e-06
0.13, 3, 7.92383e-09
0.13, sum, 5.20688e-05
0.14, 1, 9.95444e-05
0.14, 2, 9.16518e-06
0.14, 3, 2.31601e-08
0.14, sum, 0.000108733
0.15, 1, 0.000195934
0.15, 2, 1.68139e-05
0.15, 3, 6.34838e-08
0.15, sum, 0.000212811
0.16, 1, 0.000363296
0.16, 2, 2.9928e-05
0.16, 3, 1.64012e-07
0.16, sum, 0.000393388
0.17, 1, 0.000639028
0.17, 2, 5.18196e-05
0.17, 3, 4.0081e-07
0.17, sum, 0.000691249
0.18, 1, 0.00107254
0.18, 2, 8.74027e-05
0.18, 3, 9.29019e-07
0.18, sum, 0.00116088
0.19, 1, 0.00172609
0.19, 2, 0.000143689
0.19, 3, 2.04674e-06
0.19, sum, 0.00187183
0.20, 1, 0.00267461
0.20, 2, 0.000230272
0.20, 3, 4.29358e-06
0.20, sum, 0.00290917
0.21, 1, 0.00400438
0.21, 2, 0.000359684
0.21, 3, 8.58932e-06
0.21, sum, 0.00437265
0.22, 1, 0.00581047
0.22, 2, 0.000547511
0.22, 3, 1.64085e-05
0.22, sum, 0.00637439
0.23, 1, 0.00819285
0.23, 2, 0.000812095
0.23, 3, 2.99699e-05
0.23, sum, 0.00903492
0.24, 1, 0.0112515
0.24, 2, 0.00117369
0.24, 3, 5.23977e-05
0.24, sum, 0.0124776
0.25, 1, 0.0150807
0.25, 2, 0.00165302
0.25, 3, 8.77847e-05
0.25, sum, 0.0168215
0.26, 1, 0.019763
0.26, 2, 0.00226914
0.26, 3, 0.000141077
0.26, sum, 0.0221732
0.27, 1, 0.0253632
0.27, 2, 0.00303689
0.27, 3, 0.000217697
0.27, sum, 0.0286177
0.28, 1, 0.0319229
0.28, 2, 0.00396406
0.28, 3, 0.000322862
0.28, sum, 0.0362098
0.29, 1, 0.0394563
0.29, 2, 0.00504857
0.29, 3, 0.000460618
0.29, sum, 0.0449655
0.30, 1, 0.0479471
0.30, 2, 0.00627637
0.30, 3, 0.000632701
0.30, sum, 0.0548561
0.31, 1, 0.057347
0.31, 2, 0.00762013
0.31, 3, 0.000837417
0.31, sum, 0.0658045
0.32, 1, 0.0675766
0.32, 2, 0.00903935
0.32, 3, 0.00106882
0.32, sum, 0.0776848
0.33, 1, 0.0785272
0.33, 2, 0.0104819
0.33, 3, 0.00131646
0.33, sum, 0.0903256
0.34, 1, 0.0900648
0.34, 2, 0.0118873
0.34, 3, 0.00156584
0.34, sum, 0.103518
0.35, 1, 0.102036
0.35, 2, 0.0131907
0.35, 3, 0.0017997
0.35, sum, 0.117026
0.36, 1, 0.114272
0.36, 2, 0.0143283
0.36, 3, 0.002
0.36, sum, 0.1306
0.37, 1, 0.126598
0.37, 2, 0.0152426
0.37, 3, 0.00215019
0.37, sum, 0.143991
0.38, 1, 0.13884
0.38, 2, 0.0158873
0.38, 3, 0.00223754
0.38, sum, 0.156965
0.39, 1, 0.150828
0.39, 2, 0.0162312
0.39, 3, 0.00225485
0.39, sum, 0.169314
0.40, 1, 0.162407
0.40, 2, 0.0162606
0.40, 3, 0.00220147
0.40, sum, 0.180869
0.41, 1, 0.173436
0.41, 2, 0.01598
0.41, 3, 0.00208319
0.41, sum, 0.191499
0.42, 1, 0.183798
0.42, 2, 0.0154111
0.42, 3, 0.00191131
0.42, sum, 0.201121
0.43, 1, 0.193398
0.43, 2, 0.0145902
0.43, 3, 0.00170083
0.43, sum, 0.209689
0.44, 1, 0.202166
0.44, 2, 0.0135646
0.44, 3, 0.00146842
0.44, sum, 0.217199
0.45, 1, 0.210056
0.45, 2, 0.0123882
0.45, 3, 0.00123031
0.45, sum, 0.223674
0.46, 1, 0.217045
0.46, 2, 0.0111173
0.46, 3, 0.00100057
0.46, sum, 0.229163
0.47, 1, 0.223132
0.47, 2, 0.00980624
0.47, 3, 0.00079002
0.47, sum, 0.233729
0.48, 1, 0.228335
0.48, 2, 0.00850405
0.48, 3, 0.000605689
0.48, sum, 0.237445
0.49, 1, 0.232685
0.49, 2, 0.00725222
0.49, 3, 0.000450953
0.49, sum, 0.240388
