init_endo,dpde,stake,proba
16, 1, 0.20, 4.65511e-05
16, 1, 0.25, 0.000842876
16, 1, 0.30, 0.00719231
16, 1, 0.35, 0.036258
16, 1, 0.40, 0.123572
16, 1, 0.45, 0.308531
16, 2, 0.20, 8.86026e-05
16, 2, 0.25, 0.000970001
16, 2, 0.30, 0.00639686
16, 2, 0.35, 0.0294359
16, 2, 0.40, 0.101431
16, 2, 0.45, 0.272827
16, 3, 0.20, 0.000331207
16, 3, 0.25, 0.0021388
16, 3, 0.30, 0.00980406
16, 3, 0.35, 0.0357537
16, 3, 0.40, 0.107604
16, 3, 0.45, 0.270896
16, 4, 0.20, 0.000808828
16, 4, 0.25, 0.00397694
16, 4, 0.30, 0.0147629
16, 4, 0.35, 0.045275
16, 4, 0.40, 0.119432
16, 4, 0.45, 0.276475
16, 5, 0.20, 0.00149932
16, 5, 0.25, 0.00622373
16, 5, 0.30, 0.0202235
16, 5, 0.35, 0.0550228
16, 5, 0.40, 0.131336
16, 5, 0.45, 0.283219
16, 6, 0.20, 0.00231374
16, 6, 0.25, 0.00867845
16, 6, 0.30, 0.0257056
16, 6, 0.35, 0.0639762
16, 6, 0.40, 0.141894
16, 6, 0.45, 0.289601
16, 7, 0.20, 0.00321006
16, 7, 0.25, 0.0113407
16, 7, 0.30, 0.0309776
16, 7, 0.35, 0.0717814
16, 7, 0.40, 0.150834
16, 7, 0.45, 0.295248
16, 8, 0.20, 0.00431425
16, 8, 0.25, 0.01418
16, 8, 0.30, 0.0357514
16, 8, 0.35, 0.0783873
16, 8, 0.40, 0.158281
16, 8, 0.45, 0.3001
16, 9, 0.20, 0.00567938
16, 9, 0.25, 0.016917
16, 9, 0.30, 0.0398363
16, 9, 0.35, 0.0839491
16, 9, 0.40, 0.164477
16, 9, 0.45, 0.304213
16, 10, 0.20, 0.00715808
16, 10, 0.25, 0.0192415
16, 10, 0.30, 0.0432935
16, 10, 0.35, 0.088675
16, 10, 0.40, 0.169661
16, 10, 0.45, 0.307688
16, 11, 0.20, 0.0084527
16, 11, 0.25, 0.0211146
16, 11, 0.30, 0.0462875
16, 11, 0.35, 0.0927354
16, 11, 0.40, 0.174032
16, 11, 0.45, 0.310634
16, 12, 0.20, 0.00940288
16, 12, 0.25, 0.0226865
16, 12, 0.30, 0.0489511
16, 12, 0.35, 0.0962497
16, 12, 0.40, 0.177744
16, 12, 0.45, 0.313148
16, 13, 0.20, 0.0100833
16, 13, 0.25, 0.0241063
16, 13, 0.30, 0.0513605
16, 13, 0.35, 0.0992982
16, 13, 0.40, 0.180921
16, 13, 0.45, 0.31531
16, 14, 0.20, 0.0106433
16, 14, 0.25, 0.0254605
16, 14, 0.30, 0.0535457
16, 14, 0.35, 0.10194
16, 14, 0.40, 0.18366
16, 14, 0.45, 0.317183
16, 15, 0.20, 0.011189
16, 15, 0.25, 0.026782
16, 15, 0.30, 0.0555066
16, 15, 0.35, 0.104227
16, 15, 0.40, 0.18604
16, 15, 0.45, 0.318817
16, 16, 0.20, 0.0117663
16, 16, 0.25, 0.0280669
16, 16, 0.30, 0.0572342
16, 16, 0.35, 0.106213
16, 16, 0.40, 0.188124
16, 16, 0.45, 0.320251
16, 17, 0.20, 0
16, 17, 0.25, 0
16, 17, 0.30, 0
16, 17, 0.35, 0
16, 17, 0.40, 0
16, 17, 0.45, 0
16, 18, 0.20, 0
16, 18, 0.25, 0
16, 18, 0.30, 0
16, 18, 0.35, 0
16, 18, 0.40, 0
16, 18, 0.45, 0
16, 19, 0.20, 0
16, 19, 0.25, 0
16, 19, 0.30, 0
16, 19, 0.35, 0
16, 19, 0.40, 0
16, 19, 0.45, 0
16, 20, 0.20, 0
16, 20, 0.25, 0
16, 20, 0.30, 0
16, 20, 0.35, 0
16, 20, 0.40, 0
16, 20, 0.45, 0
18, 1, 0.20, 0.000418997
18, 1, 0.25, 0.00443644
18, 1, 0.30, 0.0246076
18, 1, 0.35, 0.0861534
18, 1, 0.40, 0.211736
18, 1, 0.45, 0.388421
18, 2, 0.20, 0.000118653
18, 2, 0.25, 0.00158086
18, 2, 0.30, 0.0108283
18, 2, 0.35, 0.0466753
18, 2, 0.40, 0.14143
18, 2, 0.45, 0.321546
18, 3, 0.20, 0.000148014
18, 3, 0.25, 0.00140839
18, 3, 0.30, 0.00874298
18, 3, 0.35, 0.0378664
18, 3, 0.40, 0.120292
18, 3, 0.45, 0.293894
18, 4, 0.20, 0.000361
18, 4, 0.25, 0.00209965
18, 4, 0.30, 0.00973717
18, 4, 0.35, 0.0375454
18, 4, 0.40, 0.115783
18, 4, 0.45, 0.284168
18, 5, 0.20, 0.000759064
18, 5, 0.25, 0.00349316
18, 5, 0.30, 0.0130994
18, 5, 0.35, 0.0429148
18, 5, 0.40, 0.119937
18, 5, 0.45, 0.282245
18, 6, 0.20, 0.00132566
18, 6, 0.25, 0.00519666
18, 6, 0.30, 0.0171464
18, 6, 0.35, 0.0498438
18, 6, 0.40, 0.126947
18, 6, 0.45, 0.283825
18, 7, 0.20, 0.00194108
18, 7, 0.25, 0.00701284
18, 7, 0.30, 0.0214872
18, 7, 0.35, 0.0570749
18, 7, 0.40, 0.134576
18, 7, 0.45, 0.286938
18, 8, 0.20, 0.00255493
18, 8, 0.25, 0.00904721
18, 8, 0.30, 0.0260911
18, 8, 0.35, 0.064103
18, 8, 0.40, 0.142057
18, 8, 0.45, 0.290779
18, 9, 0.20, 0.00331716
18, 9, 0.25, 0.0114316
18, 9, 0.30, 0.0306326
18, 9, 0.35, 0.0701998
18, 9, 0.40, 0.148672
18, 9, 0.45, 0.294643
18, 10, 0.20, 0.00434534
18, 10, 0.25, 0.0140762
18, 10, 0.30, 0.0346562
18, 10, 0.35, 0.0753825
18, 10, 0.40, 0.154515
18, 10, 0.45, 0.298301
18, 11, 0.20, 0.00567212
18, 11, 0.25, 0.0165893
18, 11, 0.30, 0.0379676
18, 11, 0.35, 0.0798751
18, 11, 0.40, 0.159687
18, 11, 0.45, 0.30163
18, 12, 0.20, 0.00711831
18, 12, 0.25, 0.0186068
18, 12, 0.30, 0.0407252
18, 12, 0.35, 0.0838637
18, 12, 0.40, 0.164254
18, 12, 0.45, 0.304596
18, 13, 0.20, 0.00835062
18, 13, 0.25, 0.0201232
18, 13, 0.30, 0.0431525
18, 13, 0.35, 0.0874776
18, 13, 0.40, 0.168301
18, 13, 0.45, 0.307227
18, 14, 0.20, 0.00919691
18, 14, 0.25, 0.0213381
18, 14, 0.30, 0.0453984
18, 14, 0.35, 0.0907809
18, 14, 0.40, 0.171881
18, 14, 0.45, 0.309558
18, 15, 0.20, 0.00973899
18, 15, 0.25, 0.0224319
18, 15, 0.30, 0.0475402
18, 15, 0.35, 0.0937953
18, 15, 0.40, 0.175036
18, 15, 0.45, 0.311631
18, 16, 0.20, 0.0101423
18, 16, 0.25, 0.0235054
18, 16, 0.30, 0.049606
18, 16, 0.35, 0.0965174
18, 16, 0.40, 0.177818
18, 16, 0.45, 0.313481
18, 17, 0.20, 0.0105263
18, 17, 0.25, 0.0246002
18, 17, 0.30, 0.051588
18, 17, 0.35, 0.0989389
18, 17, 0.40, 0.18028
18, 17, 0.45, 0.315139
18, 18, 0.20, 0.0109416
18, 18, 0.25, 0.0257285
18, 18, 0.30, 0.0534495
18, 18, 0.35, 0.101069
18, 18, 0.40, 0.182474
18, 18, 0.45, 0.31663
18, 19, 0.20, 0
18, 19, 0.25, 0
18, 19, 0.30, 0
18, 19, 0.35, 0
18, 19, 0.40, 0
18, 19, 0.45, 0
18, 20, 0.20, 0
18, 20, 0.25, 0
18, 20, 0.30, 0
18, 20, 0.35, 0
18, 20, 0.40, 0
18, 20, 0.45, 0
20, 1, 0.20, 0.00372366
20, 1, 0.25, 0.0230319
20, 1, 0.30, 0.0809143
20, 1, 0.35, 0.191128
20, 1, 0.40, 0.334845
20, 1, 0.45, 0.461758
20, 2, 0.20, 0.00105971
20, 2, 0.25, 0.00829517
20, 2, 0.30, 0.0361441
20, 2, 0.35, 0.105363
20, 2, 0.40, 0.227862
20, 2, 0.45, 0.389107
20, 3, 0.20, 0.000377339
20, 3, 0.25, 0.00374958
20, 3, 0.30, 0.0200973
20, 3, 0.35, 0.0698859
20, 3, 0.40, 0.175773
20, 3, 0.45, 0.344798
20, 4, 0.20, 0.000263083
20, 4, 0.25, 0.00237581
20, 4, 0.30, 0.0138566
20, 4, 0.35, 0.054297
20, 4, 0.40, 0.151066
20, 4, 0.45, 0.321185
20, 5, 0.20, 0.000450513
20, 5, 0.25, 0.00276998
20, 5, 0.30, 0.0134487
20, 5, 0.35, 0.0500106
20, 5, 0.40, 0.140422
20, 5, 0.45, 0.308143
20, 6, 0.20, 0.000778135
20, 6, 0.25, 0.00369019
20, 6, 0.30, 0.0147414
20, 6, 0.35, 0.0502092
20, 6, 0.40, 0.137081
20, 6, 0.45, 0.3014
20, 7, 0.20, 0.00131931
20, 7, 0.25, 0.00519618
20, 7, 0.30, 0.0178207
20, 7, 0.35, 0.0540626
20, 7, 0.40, 0.138353
20, 7, 0.45, 0.298023
20, 8, 0.20, 0.00175664
20, 8, 0.25, 0.00619956
20, 8, 0.30, 0.0202734
20, 8, 0.35, 0.0583215
20, 8, 0.40, 0.141888
20, 8, 0.45, 0.297269
20, 9, 0.20, 0.0021913
20, 9, 0.25, 0.00773699
20, 9, 0.30, 0.023978
20, 9, 0.35, 0.0638694
20, 9, 0.40, 0.146786
20, 9, 0.45, 0.298191
20, 10, 0.20, 0.00270698
20, 10, 0.25, 0.00957292
20, 10, 0.30, 0.0280436
20, 10, 0.35, 0.06954
20, 10, 0.40, 0.152065
20, 10, 0.45, 0.3002
20, 11, 0.20, 0.00340314
20, 11, 0.25, 0.0117856
20, 11, 0.30, 0.0320115
20, 11, 0.35, 0.0743425
20, 11, 0.40, 0.156845
20, 11, 0.45, 0.302606
20, 12, 0.20, 0.00438852
20, 12, 0.25, 0.0143264
20, 12, 0.30, 0.0356597
20, 12, 0.35, 0.0786799
20, 12, 0.40, 0.161339
20, 12, 0.45, 0.305111
20, 13, 0.20, 0.005699
20, 13, 0.25, 0.0167163
20, 13, 0.30, 0.0384475
20, 13, 0.35, 0.0821874
20, 13, 0.40, 0.165258
20, 13, 0.45, 0.307475
20, 14, 0.20, 0.00713347
20, 14, 0.25, 0.0185875
20, 14, 0.30, 0.0408034
20, 14, 0.35, 0.0855073
20, 14, 0.40, 0.168888
20, 14, 0.45, 0.309674
20, 15, 0.20, 0.00833862
20, 15, 0.25, 0.0198844
20, 15, 0.30, 0.0427235
20, 15, 0.35, 0.0883746
20, 15, 0.40, 0.172099
20, 15, 0.45, 0.311671
20, 16, 0.20, 0.00913448
20, 16, 0.25, 0.0208763
20, 16, 0.30, 0.0445911
20, 16, 0.35, 0.0911328
20, 16, 0.40, 0.175045
20, 16, 0.45, 0.313495
20, 17, 0.20, 0.00959896
20, 17, 0.25, 0.0217254
20, 17, 0.30, 0.0463062
20, 17, 0.35, 0.0936258
20, 17, 0.40, 0.1777
20, 17, 0.45, 0.315155
20, 18, 0.20, 0.00990451
20, 18, 0.25, 0.0225519
20, 18, 0.30, 0.0479589
20, 18, 0.35, 0.0959379
20, 18, 0.40, 0.180104
20, 18, 0.45, 0.316671
20, 19, 0.20, 0.0101801
20, 19, 0.25, 0.0233924
20, 19, 0.30, 0.0495959
20, 19, 0.35, 0.098147
20, 19, 0.40, 0.182308
20, 19, 0.45, 0.318057
20, 20, 0.20, 0.0104826
20, 20, 0.25, 0.0242526
20, 20, 0.30, 0.0512172
20, 20, 0.35, 0.100178
20, 20, 0.40, 0.184294
20, 20, 0.45, 0.319322
22, 1, 0.20, 0.0220213
22, 1, 0.25, 0.0840532
22, 1, 0.30, 0.198981
22, 1, 0.35, 0.338808
22, 1, 0.40, 0.454738
22, 1, 0.45, 0.511872
22, 2, 0.20, 0.00742553
22, 2, 0.25, 0.0351245
22, 2, 0.30, 0.100969
22, 2, 0.35, 0.207362
22, 2, 0.40, 0.334646
22, 2, 0.45, 0.450404
22, 3, 0.20, 0.00279652
22, 3, 0.25, 0.0166133
22, 3, 0.30, 0.0576796
22, 3, 0.35, 0.139338
22, 3, 0.40, 0.259847
22, 3, 0.45, 0.401249
22, 4, 0.20, 0.00108819
22, 4, 0.25, 0.00832124
22, 4, 0.30, 0.0357348
22, 4, 0.35, 0.102164
22, 4, 0.40, 0.216314
22, 4, 0.45, 0.369489
22, 5, 0.20, 0.000603879
22, 5, 0.25, 0.00505709
22, 5, 0.30, 0.0250676
22, 5, 0.35, 0.0814513
22, 5, 0.40, 0.1899
22, 5, 0.45, 0.348637
22, 6, 0.20, 0.000582198
22, 6, 0.25, 0.00406342
22, 6, 0.30, 0.0204506
22, 6, 0.35, 0.0704894
22, 6, 0.40, 0.174056
22, 6, 0.45, 0.335116
22, 7, 0.20, 0.000905619
22, 7, 0.25, 0.00484014
22, 7, 0.30, 0.0203407
22, 7, 0.35, 0.066247
22, 7, 0.40, 0.164436
22, 7, 0.45, 0.325173
22, 8, 0.20, 0.00137274
22, 8, 0.25, 0.00581903
22, 8, 0.30, 0.0215727
22, 8, 0.35, 0.0660168
22, 8, 0.40, 0.160056
22, 8, 0.45, 0.318302
22, 9, 0.20, 0.00190821
22, 9, 0.25, 0.00721669
22, 9, 0.30, 0.0242579
22, 9, 0.35, 0.0684929
22, 9, 0.40, 0.159229
22, 9, 0.45, 0.313812
22, 10, 0.20, 0.00218117
22, 10, 0.25, 0.00817342
22, 10, 0.30, 0.0267009
22, 10, 0.35, 0.0718941
22, 10, 0.40, 0.160877
22, 10, 0.45, 0.311713
22, 11, 0.20, 0.00268239
22, 11, 0.25, 0.00985764
22, 11, 0.30, 0.0299635
22, 11, 0.35, 0.075879
22, 11, 0.40, 0.163734
22, 11, 0.45, 0.311299
22, 12, 0.20, 0.00293535
22, 12, 0.25, 0.0109365
22, 12, 0.30, 0.0325924
22, 12, 0.35, 0.0796324
22, 12, 0.40, 0.16711
22, 12, 0.45, 0.31205
22, 13, 0.20, 0.00362305
22, 13, 0.25, 0.0130054
22, 13, 0.30, 0.0357802
22, 13, 0.35, 0.0832406
22, 13, 0.40, 0.170471
22, 13, 0.45, 0.313368
22, 14, 0.20, 0.00459328
22, 14, 0.25, 0.0152989
22, 14, 0.30, 0.0387964
22, 14, 0.35, 0.0866328
22, 14, 0.40, 0.173718
22, 14, 0.45, 0.314928
22, 15, 0.20, 0.00586417
22, 15, 0.25, 0.0174165
22, 15, 0.30, 0.0411223
22, 15, 0.35, 0.0894566
22, 15, 0.40, 0.17666
22, 15, 0.45, 0.316509
22, 16, 0.20, 0.00725516
22, 16, 0.25, 0.0191339
22, 16, 0.30, 0.0432261
22, 16, 0.35, 0.0921808
22, 16, 0.40, 0.179401
22, 16, 0.45, 0.318029
22, 17, 0.20, 0.00841429
22, 17, 0.25, 0.0202741
22, 17, 0.30, 0.0448455
22, 17, 0.35, 0.0945078
22, 17, 0.40, 0.181864
22, 17, 0.45, 0.319449
22, 18, 0.20, 0.00917276
22, 18, 0.25, 0.0211946
22, 18, 0.30, 0.0465625
22, 18, 0.35, 0.0968132
22, 18, 0.40, 0.184146
22, 18, 0.45, 0.320771
22, 19, 0.20, 0.00958989
22, 19, 0.25, 0.0218905
22, 19, 0.30, 0.0479707
22, 19, 0.35, 0.0988118
22, 19, 0.40, 0.186208
22, 19, 0.45, 0.321993
22, 20, 0.20, 0.00985379
22, 20, 0.25, 0.0226771
22, 20, 0.30, 0.04955
22, 20, 0.35, 0.100778
22, 20, 0.40, 0.188114
22, 20, 0.45, 0.323126
24, 1, 0.20, 0.0847297
24, 1, 0.25, 0.210932
24, 1, 0.30, 0.359929
24, 1, 0.35, 0.477741
24, 1, 0.40, 0.535308
24, 1, 0.45, 0.536445
24, 2, 0.20, 0.0338839
24, 2, 0.25, 0.102676
24, 2, 0.30, 0.209095
24, 2, 0.35, 0.327858
24, 2, 0.40, 0.429171
24, 2, 0.45, 0.493076
24, 3, 0.20, 0.015217
24, 3, 0.25, 0.0556324
24, 3, 0.30, 0.131584
24, 3, 0.35, 0.234857
24, 3, 0.40, 0.346624
24, 3, 0.45, 0.447908
24, 4, 0.20, 0.00676971
24, 4, 0.25, 0.0309935
24, 4, 0.30, 0.0871224
24, 4, 0.35, 0.177681
24, 4, 0.40, 0.291686
24, 4, 0.45, 0.413892
24, 5, 0.20, 0.0029627
24, 5, 0.25, 0.0174773
24, 5, 0.30, 0.059797
24, 5, 0.35, 0.140531
24, 5, 0.40, 0.254525
24, 5, 0.45, 0.389222
24, 6, 0.20, 0.00146269
24, 6, 0.25, 0.0104929
24, 6, 0.30, 0.0430216
24, 6, 0.35, 0.115823
24, 6, 0.40, 0.229451
24, 6, 0.45, 0.372146
24, 7, 0.20, 0.00110169
24, 7, 0.25, 0.00769307
24, 7, 0.30, 0.0338102
24, 7, 0.35, 0.098946
24, 7, 0.40, 0.210402
24, 7, 0.45, 0.359171
24, 8, 0.20, 0.00117809
24, 8, 0.25, 0.00710137
24, 8, 0.30, 0.0298914
24, 8, 0.35, 0.0889173
24, 8, 0.40, 0.196326
24, 8, 0.45, 0.348566
24, 9, 0.20, 0.00170172
24, 9, 0.25, 0.0079598
24, 9, 0.30, 0.0294979
24, 9, 0.35, 0.0840788
24, 9, 0.40, 0.186331
24, 9, 0.45, 0.339224
24, 10, 0.20, 0.0021259
24, 10, 0.25, 0.00890868
24, 10, 0.30, 0.0307079
24, 10, 0.35, 0.0831594
24, 10, 0.40, 0.180824
24, 10, 0.45, 0.331917
24, 11, 0.20, 0.00259917
24, 11, 0.25, 0.0103297
24, 11, 0.30, 0.0329589
24, 11, 0.35, 0.0844332
24, 11, 0.40, 0.178604
24, 11, 0.45, 0.32676
24, 12, 0.20, 0.00290968
24, 12, 0.25, 0.0115133
24, 12, 0.30, 0.0352837
24, 12, 0.35, 0.0868364
24, 12, 0.40, 0.178847
24, 12, 0.45, 0.323831
24, 13, 0.20, 0.00355402
24, 13, 0.25, 0.0131889
24, 13, 0.30, 0.0378363
24, 13, 0.35, 0.0895898
24, 13, 0.40, 0.180377
24, 13, 0.45, 0.3226
24, 14, 0.20, 0.00392342
24, 14, 0.25, 0.0144714
24, 14, 0.30, 0.0401049
24, 14, 0.35, 0.0923804
24, 14, 0.40, 0.182559
24, 14, 0.45, 0.322549
24, 15, 0.20, 0.00479002
24, 15, 0.25, 0.0162469
24, 15, 0.30, 0.0423609
24, 15, 0.35, 0.0949936
24, 15, 0.40, 0.184884
24, 15, 0.45, 0.323148
24, 16, 0.20, 0.00532271
24, 16, 0.25, 0.0175454
24, 16, 0.30, 0.0443264
24, 16, 0.35, 0.0974506
24, 16, 0.40, 0.187184
24, 16, 0.45, 0.324056
24, 17, 0.20, 0.00649179
24, 17, 0.25, 0.019154
24, 17, 0.30, 0.0461805
24, 17, 0.35, 0.0996746
24, 17, 0.40, 0.189335
24, 17, 0.45, 0.325064
24, 18, 0.20, 0.00769514
24, 18, 0.25, 0.0205331
24, 18, 0.30, 0.047929
24, 18, 0.35, 0.101773
24, 18, 0.40, 0.191344
24, 18, 0.45, 0.326077
24, 19, 0.20, 0.00869241
24, 19, 0.25, 0.0215204
24, 19, 0.30, 0.0493933
24, 19, 0.35, 0.10366
24, 19, 0.40, 0.193194
24, 19, 0.45, 0.327054
24, 20, 0.20, 0.00936284
24, 20, 0.25, 0.022394
24, 20, 0.30, 0.050883
24, 20, 0.35, 0.10545
24, 20, 0.40, 0.194904
24, 20, 0.45, 0.327982
28, 1, 0.20, 0.385222
28, 1, 0.25, 0.526816
28, 1, 0.30, 0.601113
28, 1, 0.35, 0.614998
28, 1, 0.40, 0.590875
28, 1, 0.45, 0.548691
28, 2, 0.20, 0.208454
28, 2, 0.25, 0.333809
28, 2, 0.30, 0.439115
28, 2, 0.35, 0.507935
28, 2, 0.40, 0.537271
28, 2, 0.45, 0.532641
28, 3, 0.20, 0.126542
28, 3, 0.25, 0.225592
28, 3, 0.30, 0.324908
28, 3, 0.35, 0.409372
28, 3, 0.40, 0.470265
28, 3, 0.45, 0.503812
28, 4, 0.20, 0.0798265
28, 4, 0.25, 0.159061
28, 4, 0.30, 0.248087
28, 4, 0.35, 0.335636
28, 4, 0.40, 0.413385
28, 4, 0.45, 0.47494
28, 5, 0.20, 0.049467
28, 5, 0.25, 0.11428
28, 5, 0.30, 0.194744
28, 5, 0.35, 0.281429
28, 5, 0.40, 0.368637
28, 5, 0.45, 0.450117
28, 6, 0.20, 0.0287911
28, 6, 0.25, 0.0812592
28, 6, 0.30, 0.156558
28, 6, 0.35, 0.242798
28, 6, 0.40, 0.334881
28, 6, 0.45, 0.430076
28, 7, 0.20, 0.0156347
28, 7, 0.25, 0.0556446
28, 7, 0.30, 0.125753
28, 7, 0.35, 0.21404
28, 7, 0.40, 0.31017
28, 7, 0.45, 0.413859
28, 8, 0.20, 0.00838073
28, 8, 0.25, 0.0372862
28, 8, 0.30, 0.0998258
28, 8, 0.35, 0.189938
28, 8, 0.40, 0.292236
28, 8, 0.45, 0.402399
28, 9, 0.20, 0.00505047
28, 9, 0.25, 0.0257496
28, 9, 0.30, 0.0788981
28, 9, 0.35, 0.167038
28, 9, 0.40, 0.275602
28, 9, 0.45, 0.393759
28, 10, 0.20, 0.00391981
28, 10, 0.25, 0.0198053
28, 10, 0.30, 0.0645504
28, 10, 0.35, 0.14734
28, 10, 0.40, 0.258927
28, 10, 0.45, 0.385492
28, 11, 0.20, 0.00385178
28, 11, 0.25, 0.0174735
28, 11, 0.30, 0.0558945
28, 11, 0.35, 0.131715
28, 11, 0.40, 0.24254
28, 11, 0.45, 0.376253
28, 12, 0.20, 0.00422117
28, 12, 0.25, 0.0172121
28, 12, 0.30, 0.051952
28, 12, 0.35, 0.121506
28, 12, 0.40, 0.228643
28, 12, 0.45, 0.366597
28, 13, 0.20, 0.00478513
28, 13, 0.25, 0.0178916
28, 13, 0.30, 0.0507911
28, 13, 0.35, 0.11568
28, 13, 0.40, 0.218046
28, 13, 0.45, 0.357393
28, 14, 0.20, 0.00540642
28, 14, 0.25, 0.0189447
28, 14, 0.30, 0.0512828
28, 14, 0.35, 0.113383
28, 14, 0.40, 0.211258
28, 14, 0.45, 0.349669
28, 15, 0.20, 0.00609177
28, 15, 0.25, 0.020067
28, 15, 0.30, 0.0524212
28, 15, 0.35, 0.113128
28, 15, 0.40, 0.207612
28, 15, 0.45, 0.343904
28, 16, 0.20, 0.00675932
28, 16, 0.25, 0.0211575
28, 16, 0.30, 0.0538503
28, 16, 0.35, 0.114037
28, 16, 0.40, 0.206295
28, 16, 0.45, 0.340162
28, 17, 0.20, 0.00745235
28, 17, 0.25, 0.0221689
28, 17, 0.30, 0.0552815
28, 17, 0.35, 0.115388
28, 17, 0.40, 0.206367
28, 17, 0.45, 0.338085
28, 18, 0.20, 0.00807302
28, 18, 0.25, 0.0231124
28, 18, 0.30, 0.0566994
28, 18, 0.35, 0.116891
28, 18, 0.40, 0.207172
28, 18, 0.45, 0.337182
28, 19, 0.20, 0.00867818
28, 19, 0.25, 0.0239918
28, 19, 0.30, 0.0580268
28, 19, 0.35, 0.118356
28, 19, 0.40, 0.208273
28, 19, 0.45, 0.336984
28, 20, 0.20, 0.00917577
28, 20, 0.25, 0.0248333
28, 20, 0.30, 0.0592957
28, 20, 0.35, 0.119749
28, 20, 0.40, 0.209457
28, 20, 0.45, 0.337158
30, 1, 0.20, 0.529345
30, 1, 0.25, 0.623297
30, 1, 0.30, 0.65134
30, 1, 0.35, 0.635183
30, 1, 0.40, 0.596712
30, 1, 0.45, 0.549604
30, 2, 0.20, 0.321694
30, 2, 0.25, 0.436602
30, 2, 0.30, 0.517139
30, 2, 0.35, 0.557622
30, 2, 0.40, 0.562359
30, 2, 0.45, 0.540453
30, 3, 0.20, 0.214327
30, 3, 0.25, 0.315758
30, 3, 0.30, 0.40402
30, 3, 0.35, 0.4694
30, 3, 0.40, 0.507705
30, 3, 0.45, 0.518994
30, 4, 0.20, 0.150446
30, 4, 0.25, 0.236866
30, 4, 0.30, 0.321603
30, 4, 0.35, 0.396516
30, 4, 0.40, 0.455444
30, 4, 0.45, 0.494334
30, 5, 0.20, 0.108038
30, 5, 0.25, 0.182891
30, 5, 0.30, 0.261349
30, 5, 0.35, 0.339612
30, 5, 0.40, 0.411484
30, 5, 0.45, 0.471351
30, 6, 0.20, 0.0759017
30, 6, 0.25, 0.144472
30, 6, 0.30, 0.218108
30, 6, 0.35, 0.295951
30, 6, 0.40, 0.376205
30, 6, 0.45, 0.451999
30, 7, 0.20, 0.0497351
30, 7, 0.25, 0.112886
30, 7, 0.30, 0.186716
30, 7, 0.35, 0.264063
30, 7, 0.40, 0.347348
30, 7, 0.45, 0.435041
30, 8, 0.20, 0.0300911
30, 8, 0.25, 0.0845223
30, 8, 0.30, 0.160046
30, 8, 0.35, 0.241821
30, 8, 0.40, 0.327215
30, 8, 0.45, 0.42095
30, 9, 0.20, 0.0173356
30, 9, 0.25, 0.0604325
30, 9, 0.30, 0.133615
30, 9, 0.35, 0.221702
30, 9, 0.40, 0.313179
30, 9, 0.45, 0.411188
30, 10, 0.20, 0.0103571
30, 10, 0.25, 0.0428458
30, 10, 0.30, 0.109401
30, 10, 0.35, 0.200838
30, 10, 0.40, 0.300438
30, 10, 0.45, 0.404646
30, 11, 0.20, 0.0072182
30, 11, 0.25, 0.031679
30, 11, 0.30, 0.0892323
30, 11, 0.35, 0.179229
30, 11, 0.40, 0.285699
30, 11, 0.45, 0.398353
30, 12, 0.20, 0.00624352
30, 12, 0.25, 0.0258856
30, 12, 0.30, 0.0752182
30, 12, 0.35, 0.160113
30, 12, 0.40, 0.269636
30, 12, 0.45, 0.390837
30, 13, 0.20, 0.00628603
30, 13, 0.25, 0.0234736
30, 13, 0.30, 0.0665369
30, 13, 0.35, 0.144765
30, 13, 0.40, 0.253587
30, 13, 0.45, 0.381903
30, 14, 0.20, 0.00675254
30, 14, 0.25, 0.0230289
30, 14, 0.30, 0.0623682
30, 14, 0.35, 0.134456
30, 14, 0.40, 0.239695
30, 14, 0.45, 0.372357
30, 15, 0.20, 0.00735089
30, 15, 0.25, 0.0234249
30, 15, 0.30, 0.0608883
30, 15, 0.35, 0.128379
30, 15, 0.40, 0.228968
30, 15, 0.45, 0.36319
30, 16, 0.20, 0.00797444
30, 16, 0.25, 0.0241814
30, 16, 0.30, 0.0610318
30, 16, 0.35, 0.12566
30, 16, 0.40, 0.221856
30, 16, 0.45, 0.355387
30, 17, 0.20, 0.00855998
30, 17, 0.25, 0.0249965
30, 17, 0.30, 0.0618432
30, 17, 0.35, 0.124967
30, 17, 0.40, 0.217832
30, 17, 0.45, 0.349478
30, 18, 0.20, 0.00909527
30, 18, 0.25, 0.0258368
30, 18, 0.30, 0.0629587
30, 18, 0.35, 0.125411
30, 18, 0.40, 0.216093
30, 18, 0.45, 0.345534
30, 19, 0.20, 0.00955975
30, 19, 0.25, 0.02664
30, 19, 0.30, 0.0641026
30, 19, 0.35, 0.126332
30, 19, 0.40, 0.215759
30, 19, 0.45, 0.343232
30, 20, 0.20, 0.00996908
30, 20, 0.25, 0.0274438
30, 20, 0.30, 0.0652345
30, 20, 0.35, 0.127421
30, 20, 0.40, 0.216177
30, 20, 0.45, 0.342097
